Spine version: 0.3.2
inputs: --pctcore 0 --refs 1,2,3,4,5,6,7 --maxdist 10 --pctid 85 --minout 10

gen_#	gen_name	gen_size	source	total_bp	gc_%	num_segs	min_seg	max_seg	avg_leng	median_leng	num_cds
1	r61	5763220	accessory	2969846	59.4188	890	10	232810	3336.91	578.5	0
1	r61	5763220	core	2793294	60.2808	814	90	31151	3431.57	2540.5	0
2	p8	6141174	accessory	3206668	60.2403	943	10	110115	3400.50	497	0
2	p8	6141174	core	2934396	61.0857	907	13	31151	3235.28	2341	0
3	p34	6093020	accessory	3134722	60.0168	966	10	113956	3245.05	372.5	0
3	p34	6093020	core	2958188	61.0744	930	10	31151	3180.85	2332.5	0
4	p37	6105467	accessory	3148045	60.0255	960	10	113956	3279.21	390	0
4	p37	6105467	core	2957318	61.0735	926	10	31151	3193.65	2344.5	0
5	p39	6105317	accessory	3085041	59.8839	1058	10	100554	2915.92	339.5	0
5	p39	6105317	core	3020180	61.1134	998	11	31151	3026.23	2133.5	0
6	p40	6089790	accessory	3141607	60.0149	953	10	113956	3296.54	379	0
6	p40	6089790	core	2948069	61.0779	926	10	31151	3183.66	2338.5	0
7	p110	6206929	accessory	3275566	59.5061	916	10	124283	3575.95	426.5	0
7	p110	6206929	core	2931297	61.0616	907	13	31151	3231.86	2348	0
-	-	-	backbone	2793294	60.2808	814	90	31151	3431.57	2540.5	0
