
gen_#	gen_name	gen_size	source	total_bp	gc_%	num_segs	min_seg	max_seg	avg_leng	median_leng	num_cds
1	Sample_66	5622134	accessory	560587	57.9323	337	12	40527	1663.46	258	0
1	Sample_66	5622134	core	5061475	62.1839	340	38	107290	14886.69	7528.5	0
2	Sample_R44	5707914	accessory	634047	57.3164	296	11	46855	2142.05	194	0
2	Sample_R44	5707914	core	5073736	62.1148	340	73	104555	14922.75	7199.5	0
3	Sample_P33	5673818	accessory	608106	57.9044	374	11	40527	1625.95	421.5	0
3	Sample_P33	5673818	core	5065632	62.1849	355	38	107290	14269.39	7441	0
4	Sample_P48	5950392	accessory	895725	57.3043	308	12	130339	2908.20	270.5	0
4	Sample_P48	5950392	core	5054578	62.1849	338	66	107290	14954.37	6755	0
-	-	-	backbone	5061475	62.1839	340	38	107290	14886.69	7528.5	0
