gen_#	gen_name	gen_size	source	total_bp	gc_%	num_segs	min_seg	max_seg	avg_leng	median_leng	num_cds
1	r28	5238754	accessory	3685980	56.7777	675	11	118581	5460.71	1611	0
1	r28	5238754	core	1552766	56.9885	544	67	38408	2854.35	1943.5	0
2	ncbi	5101809	accessory	3531890	58.8162	522	12	189830	6766.07	2322	0
2	ncbi	5101809	core	1569919	58.2210	523	78	38466	3001.76	2082	0
-	-	-	backbone	1552766	56.9885	544	67	38408	2854.35	1943.5	0
